Анализ данных: Заработная плата и факторы влияния
…
## 
##        Bachelor's Bachelor's Degree       High School          Master's 
##               756              2265               448               288 
##   Master's Degree               phD               PhD 
##              1572                 1              1368

cat("\nJob Title:\n")

## 
## Job Title:

print(salary_data %>%
  count(job_title))

## # A tibble: 191 × 2
##    job_title                         n
##    <chr>                         <int>
##  1 Account Manager                   1
##  2 Accountant                        1
##  3 Administrative Assistant          2
##  4 Back end Developer              244
##  5 Business Analyst                  2
##  6 Business Development Manager      1
##  7 Business Intelligence Analyst     1
##  8 CEO                               1
##  9 Chief Data Officer                1
## 10 Chief Technology Officer          1
## # ℹ 181 more rows
…
Фильтрация должностей с Junior

# Фильтрация должностей с "Junior"
junior_job_titles <- salary_data %>%
  filter(str_detect(job_title, regex("Junior", ignore_case = TRUE)))

# Количество должностей с "Junior"
junior_job_title_counts <- junior_job_titles %>%
  count(job_title, sort = TRUE)

# Просмотр результата
junior_job_title_counts

## # A tibble: 36 × 2
##    job_title                       n
##    <chr>                       <int>
##  1 Junior Sales Associate        142
##  2 Junior HR Generalist           60
##  3 Junior Software Developer      58
##  4 Junior Marketing Manager       51
##  5 Junior Software Engineer       51
##  6 Junior Web Developer           42
##  7 Junior Sales Representative    41
##  8 Junior HR Coordinator          29
##  9 Junior Data Analyst            25
## 10 Junior Business Analyst         8
## # ℹ 26 more rows
…
Средняя зарплата по уровням образования и должностям

# Группировка по job_title и education_level и расчёт средней зарплаты
job_education_salary <- salary_data %>%
  group_by(job_title, education_level) %>%
  summarise(avg_salary = mean(salary, na.rm = TRUE)) %>%
  pivot_wider(names_from = education_level, values_from = avg_salary)

## `summarise()` has grouped output by 'job_title'. You can override using the
## `.groups` argument.

# Просмотр результата
job_education_salary

## # A tibble: 191 × 5
## # Groups:   job_title [191]
##    job_title                     `Bachelor's` `High School` `Master's`    PhD
##    <chr>                                <dbl>         <dbl>      <dbl>  <dbl>
##  1 Account Manager                     75000            NA         NA      NA
##  2 Accountant                          55000            NA         NA      NA
##  3 Administrative Assistant            50000            NA         NA      NA
##  4 Back end Developer                  98744.        74264.    113598.     NA
##  5 Business Analyst                    75000            NA      80000      NA
##  6 Business Development Manager           NA            NA      90000      NA
##  7 Business Intelligence Analyst          NA            NA      85000      NA
##  8 CEO                                250000            NA         NA      NA
##  9 Chief Data Officer                     NA            NA         NA  220000
## 10 Chief Technology Officer               NA            NA         NA  250000
## # ℹ 181 more rows
…
